{
  "type": "object",
  "properties": {
    "packageId": {
      "type": "integer",
      "minimum": 1
    },
    "groupId": {
      "type": "integer",
      "minimum": -1
    },
    "groupName": {
      "type": "string",
      "minLength": 1,
      "maxLength": 50
    },
    "type": {
      "title": "Type",
      "type": "string",
      "enum": ["individual", "class", "group"]
    }
  },
  "additionalProperties": false,
  "required": ["packageId", "groupId", "type"]
}
