{
  "type": "object",
  "properties": {
    "enrolmentId": {
      "description": "Enrolment id C",
      "type": "integer",
      "minimum": 1
    },
    "groupId": {
      "description": "Id group",
      "type": "integer",
      "minimum": 1
    }
  },
  "required": ["enrolmentId", "groupId"]
}
