{
  "type": "object",
  "properties": {
    "enrolmentId": {
      "description": "Enrolment id F",
      "type": "integer",
      "minimum": 1
    },
    "groupId": {
      "description": "Id group",
      "type": "integer",
      "minimum": 1
    },
    "groupName": {
      "title": "New name of the group",
      "type": "string",
      "minLength": 1,
      "maxLength": 100,
      "additionalProperties": false
    }
  },
  "required": ["enrolmentId", "groupId", "groupName"]
}
