[
  {
    "instructionsUrl": "https://app.testlab4.felk.cvut.cz/cviceni-aktualni/assets/pdf/doporuceny-postup/co-ministr-vzkazuje-ucitelum.pdf",
    "tryItUrl": "https://app.testlab4.felk.cvut.cz/cviceni/co-ministr-vzkazuje-ucitelum?lang=cs",
    "url": "https://testlab4.felk.cvut.cz/cviceni/co-ministr-vzkazuje-ucitelum",
    "image_url": "https://app.testlab4.felk.cvut.cz/cviceni-aktualni/assets/img/co-ministr-vzkazuje-ucitelum/pic-01.jpg",
    "id": 621,
    "code": "cviceniCoMinistrVzkazujeUcitelum",
    "name": "Co ministr vzkazuje učitelům?",
    "description": "V rámci cvičení se žáci prostřednictvím rozhlasového projevu ministra školství ČSR Jaromíra Hrbka ze září 1969 seznamují s normalizačním výkladem událostí roku 1968. S využitím dalších pramenů zkoumají významy, které mohli projevu ministra přikládat doboví posluchači, zejména učitelé. Cvičení využívá obeznámenost žáků se sociálním prostředím školy a podněcuje je k tomu, aby vnímali události pohledem dobových učitelů a promýšleli možné dopady projevu na jejich jednání.",
    "taxonomy": "lupa;cteni;text;audio;svg",
    "topics": "1968;normalizace;škola;ideologie;dobové perspektivy;měníme pohledy",
    "enabled": true,
    "slug": "co-ministr-vzkazuje-ucitelum",
    "authors": "Kamil Činátl",
    "exerciseId": 2,
    "language": "cs",
    "estimatedTime": 30
  },
  {
    "instructionsUrl": "https://app.testlab4.felk.cvut.cz/cviceni-aktualni/assets/pdf/doporuceny-postup/co-prinese-mir.pdf",
    "tryItUrl": "https://app.testlab4.felk.cvut.cz/cviceni/co-prinese-mir?lang=cs",
    "url": "https://testlab4.felk.cvut.cz/cviceni/co-prinese-mir",
    "image_url": "https://app.testlab4.felk.cvut.cz/cviceni-aktualni/assets/img/co-prinese-mir/versailles_cannonfodder-1280.jpg",
    "id": 622,
    "code": "cviceniCoPrineseMir",
    "name": "Co přinese mír?",
    "description": "Cvičení rozvíjí dovednost analyzovat karikatury. Využívá známou karikaturu Willa Dysona, otištěnou v květnu roku 1919 v deníku Daily Herald, která předpovídá nestabilitu právě vznikajícího versailleského mírového systému. Cvičení umožňuje žákům, aby rozpoznali symbolické prostředky, které karikaturista využil. Při analýze obrazu rekonstruují pohled autora a části britské veřejnosti na mocenskou politiku vítězů ve Versailles.",
    "taxonomy": "lupa;cteni;text;svg;znacky;pretahovani",
    "topics": "důsledky 1. světové války;versailleský mírový systém;dějiny médií;dobové perspektivy;vidíme pod povrch pramene",
    "enabled": true,
    "slug": "co-prinese-mir",
    "authors": "Jaroslav Najbert",
    "exerciseId": 71,
    "language": "cs",
    "estimatedTime": 30
  },
  {
    "instructionsUrl": "https://app.testlab4.felk.cvut.cz/cviceni-aktualni/assets/pdf/doporuceny-postup/co-prinesl-nastup-rozhlasu.pdf",
    "tryItUrl": "https://app.testlab4.felk.cvut.cz/cviceni/co-prinesl-nastup-rozhlasu?lang=cs",
    "url": "https://testlab4.felk.cvut.cz/cviceni/co-prinesl-nastup-rozhlasu",
    "image_url": "https://app.testlab4.felk.cvut.cz/cviceni-aktualni/assets/img/co-prinesl-nastup-rozhlasu/rozhlasovy-autobus.jpg",
    "id": 623,
    "code": "cviceniCoPrineslNastupRozhlasu",
    "name": "Co přinesl nástup rozhlasu?",
    "description": "Cvičení seznamuje žáky s počátky rozhlasu v meziválečném Československu. Žáci zkoumají dobové fotografie a zvukové záznamy a zamýšlejí se nad tím, proč lidé poslouchali rozhlas a jak mohlo tehdy nové médium ovlivnit každodenní život lidí. Cvičení obrací pozornost žáků k technologiím a jejich dopadu na moderní společnost.",
    "taxonomy": "lupa;cteni;text;svg;audio",
    "topics": "technika;masová kultura;dějiny médií;trvání a změna;otevíráme otázku",
    "enabled": true,
    "slug": "co-prinesl-nastup-rozhlasu",
    "authors": "Josef Řídký",
    "exerciseId": 56,
    "language": "cs",
    "estimatedTime": 25
  },
  {
    "instructionsUrl": "https://app.testlab4.felk.cvut.cz/cviceni-aktualni/assets/pdf/doporuceny-postup/co-se-stalo-na-letisti-croydon.pdf",
    "tryItUrl": "https://app.testlab4.felk.cvut.cz/cviceni/co-se-stalo-na-letisti-croydon?lang=cs",
    "url": "https://testlab4.felk.cvut.cz/cviceni/co-se-stalo-na-letisti-croydon",
    "image_url": "https://app.testlab4.felk.cvut.cz/cviceni-aktualni/assets/img/co-se-stalo-na-letisti-croydon/pic-00.jpg",
    "id": 624,
    "code": "cviceniCoSeStaloNaLetistiCroydon",
    "name": "Co se stalo na letišti Croydon?",
    "description": "Cvičení pracuje s reportážní fotografií zachycující kritický moment v příběhu československého uprchlíka Oskara Goldberga, který se v roce 1939 pokusil nalézt azyl ve Velké Británii. Žáci v roli novinářů odhalují s pomocí dalších dobových dokumentů nečekanou osobní rovinu jeho příběhu a zpracovávají jej do podoby novinové zprávy.",
    "taxonomy": "lupa;text;svg;znacky;cteni",
    "topics": "druhá světová válka;nacismus;holokaust;uprchlíci;etická dimenze;tvoříme",
    "enabled": true,
    "slug": "co-se-stalo-na-letisti-croydon",
    "authors": "Michal Frankl",
    "exerciseId": 10,
    "language": "cs",
    "estimatedTime": 45
  },
  {
    "instructionsUrl": "https://app.testlab4.felk.cvut.cz/cviceni-aktualni/assets/pdf/doporuceny-postup/co-se-stalo-v-abertamech.pdf",
    "tryItUrl": "https://app.testlab4.felk.cvut.cz/cviceni/co-se-stalo-v-abertamech?lang=",
    "url": "https://testlab4.felk.cvut.cz/cviceni/co-se-stalo-v-abertamech",
    "image_url": "https://app.testlab4.felk.cvut.cz/cviceni-aktualni/assets/img/co-se-stalo-v-abertamech/Abertamy_1910.jpg",
    "id": 625,
    "code": "cviceniCoSeStaloVAbertamech",
    "name": "Co se stalo v Abertamech?",
    "description": "Cvičení se zaměřuje na srovnání čtyř fotografií, jež zachycují část náměstí krušnohorské obce Abertamy od roku 1912 až po rok 2004. Žáci popisují historické proměny místa a zamýšlejí se nad tím, jaké události měly na jeho podobu vliv. Závěry z pátrání shrnou formou příběhu.",
    "taxonomy": "lupa;text;svg;razeni",
    "topics": "důsledky druhé světové války;dějiny ve veřejném prostoru;Sudety;trvání a změna;tvoříme",
    "enabled": true,
    "slug": "co-se-stalo-v-abertamech",
    "authors": "Terezie Vávrová",
    "exerciseId": 41,
    "language": "",
    "estimatedTime": 35
  },
  {
    "instructionsUrl": "https://app.testlab4.felk.cvut.cz/cviceni-aktualni/assets/pdf/doporuceny-postup/co-se-ucime-krome-pocitani.pdf",
    "tryItUrl": "https://app.testlab4.felk.cvut.cz/cviceni/co-se-ucime-krome-pocitani?lang=cs",
    "url": "https://testlab4.felk.cvut.cz/cviceni/co-se-ucime-krome-pocitani",
    "image_url": "https://app.testlab4.felk.cvut.cz/cviceni-aktualni/assets/img/co-se-ucime-krome-pocitani/pic-00.jpg",
    "id": 626,
    "code": "cviceniCoSeUcimeKromePocitani",
    "name": "Co se učíme kromě počítání?",
    "description": "Cvičení učí žáky pomocí netradičního pramene, jakým je učebnice matematiky, rozpoznávat nacistickou propagandu. Žáci si vyzkouší práci s matematickou úlohou, kterou počítaly děti na měšťanských školách v průběhu druhé světové války. Cvičení může dokreslovat školství a běžný život v protektorátu Čechy a Morava.",
    "taxonomy": "lupa;cteni;text",
    "topics": "druhá světová válka;vzdělání;propaganda;škola;dobové perspektivy;vidíme pod povrch pramene",
    "enabled": true,
    "slug": "co-se-ucime-krome-pocitani",
    "authors": "Pavla Sýkorová",
    "exerciseId": 22,
    "language": "cs",
    "estimatedTime": 20
  },
  {
    "instructionsUrl": "https://app.testlab4.felk.cvut.cz/cviceni-aktualni/assets/pdf/doporuceny-postup/co-tvrdil-atlas.pdf",
    "tryItUrl": "https://app.testlab4.felk.cvut.cz/cviceni/co-tvrdil-atlas?lang=cs",
    "url": "https://testlab4.felk.cvut.cz/cviceni/co-tvrdil-atlas",
    "image_url": "https://app.testlab4.felk.cvut.cz/cviceni-aktualni/assets/img/co-tvrdil-atlas/dvojice-map-uvod.jpg",
    "id": 627,
    "code": "cviceniCoTvrdilAtlas",
    "name": "Co tvrdil atlas?",
    "description": "V rámci cvičení žáci analyzují mapový list z Historického atlasu revolučního hnutí z 50. let, který ilustruje proměny hranice Československé republiky po druhé světové válce. Zásluhu za poválečné změny hranic připisuje vítězství Sovětského svazu a dává jim jednoznačně kladný význam: úprava státních hranic měla zabezpečit československý stát. Žáci se učí rozpoznat dobovou propagandu a konfrontují ji s pozdějším historickým vývojem (okupace v srpnu 1968).",
    "taxonomy": "lupa;cteni;text;svg",
    "topics": "důsledky 2. světové války;propaganda;atlas map;příčiny a důsledky;vidíme pod povrch pramene;1938;1945;1968",
    "enabled": true,
    "slug": "co-tvrdil-atlas",
    "authors": "Martin Váňa",
    "exerciseId": 62,
    "language": "cs",
    "estimatedTime": 30
  },
  {
    "instructionsUrl": "https://app.testlab4.felk.cvut.cz/cviceni-aktualni/assets/pdf/doporuceny-postup/jak-mely-deti-travit-volny-cas.pdf",
    "tryItUrl": "https://app.testlab4.felk.cvut.cz/cviceni/jak-mely-deti-travit-volny-cas?lang=cs",
    "url": "https://testlab4.felk.cvut.cz/cviceni/jak-mely-deti-travit-volny-cas",
    "image_url": "https://app.testlab4.felk.cvut.cz/cviceni-aktualni/assets/img/jak-mely-deti-travit-volny-cas/deti-ve-skole-1280.jpg",
    "id": 629,
    "code": "cviceniJakMelyDetiTravitVolnyCas",
    "name": "Jak měly děti trávit volný čas?",
    "description": "Cvičení za pomoci fotografie dětí v pražském Domě pionýrů z roku 1950 tematizuje vliv poúnorové (komunistické) ideologie v oblasti výchovy dětí a mládeže. Žáci na základě analýzy fotografie formulují hypotézu, kterou následně revidují za pomoci dobového popisku. Cvičení lze využít k doplnění výkladu o proměnách československé společnosti v 50. letech 20. století.",
    "taxonomy": "lupa;cteni;text;svg",
    "topics": "propaganda;každodennost;dobové perspektivy;otevíráme otázku",
    "enabled": true,
    "slug": "jak-mely-deti-travit-volny-cas",
    "authors": "Pavla Sýkorová",
    "exerciseId": 70,
    "language": "cs",
    "estimatedTime": 30
  },
  {
    "instructionsUrl": "https://app.testlab4.felk.cvut.cz/cviceni-aktualni/assets/pdf/doporuceny-postup/jak-obhajit-pisen.pdf",
    "tryItUrl": "https://app.testlab4.felk.cvut.cz/cviceni/jak-obhajit-pisen?lang=",
    "url": "https://testlab4.felk.cvut.cz/cviceni/jak-obhajit-pisen",
    "image_url": "https://app.testlab4.felk.cvut.cz/cviceni-aktualni/assets/img/jak-obhajit-pisen/The-Plastic-people-of-the-Universe-resize.jpg",
    "id": 630,
    "code": "cviceniJakObhajitPisen",
    "name": "Jak obhájit píseň?",
    "description": "Ve cvičení žáci pracují s jednou z písní, která byla citována při soudním procesu s hudební skupinou The Plastic People of the Universe. Žáci se snaží identifikovat, v čem byla píseň odsouzeníhodná z pohledu komunistické obžaloby, a následně na to vypracovávají argumenty obhajoby. K tomu jim pomáhá článek z Rudého práva. Cvičení může být použito k dokreslení výkladu o této hudební skupině a o vzniku Charty 77.",
    "taxonomy": "lupa;cteni;text;audio",
    "topics": "Československo 70. léta;perzekuce;dobové perspektivy;tvoříme",
    "enabled": true,
    "slug": "jak-obhajit-pisen",
    "authors": "Pavla Sýkorová",
    "exerciseId": 64,
    "language": "",
    "estimatedTime": 30
  },
  {
    "instructionsUrl": "https://app.testlab4.felk.cvut.cz/cviceni-aktualni/assets/pdf/doporuceny-postup/jak-oslavovali-statni-svatek.pdf",
    "tryItUrl": "https://app.testlab4.felk.cvut.cz/cviceni/jak-oslavovali-statni-svatek?lang=cs",
    "url": "https://testlab4.felk.cvut.cz/cviceni/jak-oslavovali-statni-svatek",
    "image_url": "https://app.testlab4.felk.cvut.cz/cviceni-aktualni/assets/img/jak-oslavovali-statni-svatek/pic-00.jpg",
    "id": 631,
    "code": "cviceniJakOslavovaliStatniSvatek",
    "name": "Jak oslavovali státní svátek?",
    "description": "Cvičení se zaměřuje na analýzu fotografie májových oslav roku 1980 ve východočeském městě Polička. Žáci popisují jednotlivé symboly a prvky výzdoby a uvědomují si, že podrobný rozbor může usnadnit porozumění zachycených oslav. Seznamují se s podobou a společenskou funkcí oslav v letech normalizace. Svá zjištění mohou v navazující aktivitě porovnat s rodinnou nebo školní historií.",
    "taxonomy": "lupa;text;svg;kresleni",
    "topics": "vývoj Československa 1945-1989;vnitřní situace v zemích východního bloku;totalitní systémy - komunismus;normalizace;každodennost;oslava výročí;historický význam;otevíráme otázku",
    "enabled": true,
    "slug": "jak-oslavovali-statni-svatek",
    "authors": "Kamil Činátl",
    "exerciseId": 32,
    "language": "cs",
    "estimatedTime": 25
  },
  {
    "instructionsUrl": "https://app.testlab4.felk.cvut.cz/cviceni-aktualni/assets/pdf/doporuceny-postup/jak-se-menil-vyznam-17-listopadu-3.pdf",
    "tryItUrl": "https://app.testlab4.felk.cvut.cz/cviceni/jak-se-menil-vyznam-17-listopadu-3?lang=cs",
    "url": "https://testlab4.felk.cvut.cz/cviceni/jak-se-menil-vyznam-17-listopadu-3",
    "image_url": "https://app.testlab4.felk.cvut.cz/cviceni-aktualni/assets/img/jak-se-menil-vyznam-17-listopadu-3/oboje.jpg",
    "id": 632,
    "code": "cviceniJakSeMenilVyznam17Listopadu3",
    "name": "Jak se měnil význam 17. listopadu?",
    "description": "Cvičení předkládá žákům pamětní minci k 50. výročí 17. listopadu 1939 a pamětní medaili k 24. výročí 17. listopadu 1989. Rub a líc obou objektů nabízí bohatou symboliku, která vyjadřuje význam připisovaný tomuto státnímu svátku před pádem komunistické diktatury a v současné době. Srovnání vizuálně shodné, ale významově odlišné symboliky ostnatého drátu přivádí žáky k zamyšlení, jak se změnil význam svátku v důsledku policejního zásahu proti demonstrantům 17. listopadu 1989.",
    "taxonomy": "lupa;text;svg",
    "topics": "protektorát;sametová revoluce;pluralita vzpomínání;historické výročí;politika paměti;vzpomínková kultura;historický význam;otevíráme otázku",
    "enabled": true,
    "slug": "jak-se-menil-vyznam-17-listopadu-3",
    "authors": "Petr Sedlák",
    "exerciseId": 74,
    "language": "cs",
    "estimatedTime": 30
  },
  {
    "instructionsUrl": "https://app.testlab4.felk.cvut.cz/cviceni-aktualni/assets/pdf/doporuceny-postup/jak-si-pripominame-listopad-na-albertove-3.pdf",
    "tryItUrl": "https://app.testlab4.felk.cvut.cz/cviceni/jak-si-pripominame-listopad-na-albertove-3?lang=cs",
    "url": "https://testlab4.felk.cvut.cz/cviceni/jak-si-pripominame-listopad-na-albertove-3",
    "image_url": "https://app.testlab4.felk.cvut.cz/cviceni-aktualni/assets/img/jak-si-pripominame-listopad-na-albertove-3/Kdo_kdyz_ne_ted.jpg",
    "id": 633,
    "code": "cviceniJakSiPripominameListopadNaAlbertove3",
    "name": "Jak si připomínáme Listopad na Albertově?",
    "description": "Žáci ve cvičení pracují s pamětními deskami z pražského Albertova. Prostřednictvím porovnání dvou rozdílných způsobů připomínání Listopadu poznávají nejednotnost pojetí minulosti v české společnosti. Cvičení lze použít v souvislosti s tématem společenského vnímáním historie, například v případě výročního vzpomínkového provozu.",
    "taxonomy": "lupa;svg;text;pretahovani;znacky",
    "topics": "důsledky pádu komunismu;vzpomínková kultura;historický význam;vidíme pod povrch pramene",
    "enabled": true,
    "slug": "jak-si-pripominame-listopad-na-albertove-3",
    "authors": "Vojtěch Ripka",
    "exerciseId": 69,
    "language": "cs",
    "estimatedTime": 30
  },
  {
    "instructionsUrl": "https://app.testlab4.felk.cvut.cz/cviceni-aktualni/assets/pdf/doporuceny-postup/jak-videli-zenu.pdf",
    "tryItUrl": "https://app.testlab4.felk.cvut.cz/cviceni/jak-videli-zenu?lang=cs",
    "url": "https://testlab4.felk.cvut.cz/cviceni/jak-videli-zenu",
    "image_url": "https://app.testlab4.felk.cvut.cz/cviceni-aktualni/assets/img/jak-videli-zenu/noviny-1-1280.jpg",
    "id": 634,
    "code": "cviceniJakVideliZenu",
    "name": "Jak viděli ženu?",
    "description": "Cvičení seznamuje žáky s žánrem karikatury. Žáci analyzují dvě dvojice karikatur z humoristického časopisu Dikobraz z let 1948 a 1950, které ukazují obraz „nové ženy” dle představ komunistické ideologie. Žáci analyzují karikatury, hledají historické souvislosti, kladou otázky po dobovém smyslu zobrazení ženy a vnímají jeho historické proměny.",
    "taxonomy": "lupa;cteni;text;pretahovani;svg;kresleni",
    "topics": "komunismus;ideologie;dějiny žen;trvání a změna;otevíráme otázku",
    "enabled": true,
    "slug": "jak-videli-zenu",
    "authors": "Jaroslav Pinkas",
    "exerciseId": 66,
    "language": "cs",
    "estimatedTime": 40
  },
  {
    "instructionsUrl": "https://app.testlab4.felk.cvut.cz/cviceni-aktualni/assets/pdf/doporuceny-postup/jake-narodni-symboly-potrebujeme.pdf",
    "tryItUrl": "https://app.testlab4.felk.cvut.cz/cviceni/jake-narodni-symboly-potrebujeme?lang=cs",
    "url": "https://testlab4.felk.cvut.cz/cviceni/jake-narodni-symboly-potrebujeme",
    "image_url": "https://app.testlab4.felk.cvut.cz/cviceni-aktualni/assets/img/jake-narodni-symboly-potrebujeme/vystava.jpg",
    "id": 635,
    "code": "cviceniJakeNarodniSymbolyPotrebujeme",
    "name": "Jaké národní symboly potřebujeme?",
    "description": "Cvičení žáky formou pátrání seznamuje s příběhem jednoho ze zničených hraničních sloupů, které označovaly hranice meziválečné Československé republiky. Analýza oficiálního textu a fotografií ilustrujících nález sloupu a jeho následnou prezentaci na výstavě ke 100. výročí vzniku ČSR vede žáky k zamyšlení nad funkcí a hodnotou státních symbolů v novodobé společnosti.",
    "taxonomy": "lupa;text;svg;kresleni",
    "topics": "politická situace 20. a 30. let;symbolická hodnota;národní symboly;historický význam",
    "enabled": true,
    "slug": "jake-narodni-symboly-potrebujeme",
    "authors": "Andrea Průchová",
    "exerciseId": 72,
    "language": "cs",
    "estimatedTime": 30
  },
  {
    "instructionsUrl": "https://app.testlab4.felk.cvut.cz/cviceni-aktualni/assets/pdf/doporuceny-postup/jaky-pribeh-vypravi-tank.pdf",
    "tryItUrl": "https://app.testlab4.felk.cvut.cz/cviceni/jaky-pribeh-vypravi-tank?lang=",
    "url": "https://testlab4.felk.cvut.cz/cviceni/jaky-pribeh-vypravi-tank",
    "image_url": "https://app.testlab4.felk.cvut.cz/cviceni-aktualni/assets/img/jaky-pribeh-vypravi-tank/vojaci1.jpg",
    "id": 636,
    "code": "cviceniJakyPribehVypraviTank",
    "name": "Jaký příběh vypráví tank?",
    "description": "Cvičení pracuje se čtyřmi fotografiemi zachycujícími proměny Památníku sovětských tankistů (tanku č. 23), který na dnešním náměstí Kinských na Smíchově připomínal osvobození Prahy Rudou armádou. Žáci na základě popisu dění na fotografiích a jejich chronologického řazení reflektují posuny hodnot, které si společnost připomíná v souvislosti s koncem druhé světové války a úlohou Rudé armády. Závěry pátrání žáci popisují formou příběhu.",
    "taxonomy": "lupa;text;svg;znacky;razeni",
    "topics": "důsledky druhé světové války;Československo 48-91;dějiny ve veřejném prostoru;pomník;historický význam;tvoříme",
    "enabled": true,
    "slug": "jaky-pribeh-vypravi-tank",
    "authors": "Pavla Sýkorová",
    "exerciseId": 33,
    "language": "",
    "estimatedTime": 35
  },
  {
    "instructionsUrl": "https://app.testlab4.felk.cvut.cz/cviceni-aktualni/assets/pdf/doporuceny-postup/k-cemu-jsou-nam-vyroci.pdf",
    "tryItUrl": "https://app.testlab4.felk.cvut.cz/cviceni/k-cemu-jsou-nam-vyroci?lang=cs",
    "url": "https://testlab4.felk.cvut.cz/cviceni/k-cemu-jsou-nam-vyroci",
    "image_url": "https://app.testlab4.felk.cvut.cz/cviceni-aktualni/assets/img/k-cemu-jsou-nam-vyroci/namesti-uvodni.jpg",
    "id": 637,
    "code": "cviceniKCemuJsouNamVyroci",
    "name": "K čemu jsou nám výročí?",
    "description": "Cvičení se zaměřuje na historická výročí, která předcházela 17. listopadu 1989. Vede žáky k tomu, aby přemýšleli nad významem připomínky Palachova týdne, výročí srpnové okupace a založení Československa v době, kdy nebyly oficiálně připomínány. Cílem cvičení je pochopení významu výročí jako silného mobilizačního prvku.",
    "taxonomy": "lupa;cteni;text;svg",
    "topics": "pád komunistického režimu;občanská společnost;protesty;výročí;Československo",
    "enabled": true,
    "slug": "k-cemu-jsou-nam-vyroci",
    "authors": "Švardová Petra",
    "exerciseId": 58,
    "language": "cs",
    "estimatedTime": 45
  },
  {
    "instructionsUrl": "https://app.testlab4.felk.cvut.cz/cviceni-aktualni/assets/pdf/doporuceny-postup/kdo-byl-jejich-nepritel.pdf",
    "tryItUrl": "https://app.testlab4.felk.cvut.cz/cviceni/kdo-byl-jejich-nepritel?lang=cs",
    "url": "https://testlab4.felk.cvut.cz/cviceni/kdo-byl-jejich-nepritel",
    "image_url": "https://app.testlab4.felk.cvut.cz/cviceni-aktualni/assets/img/kdo-byl-jejich-nepritel/pic-00.jpg",
    "id": 638,
    "code": "cviceniKdoBylJejichNepritel",
    "name": "Kdo byl jejich nepřítel?",
    "description": "",
    "taxonomy": "lupa;cteni;text;svg;znacky;pretahovani",
    "topics": "",
    "enabled": true,
    "slug": "kdo-byl-jejich-nepritel",
    "authors": "Roman Anýž, Jaroslav Najbert",
    "exerciseId": 77,
    "language": "cs",
    "estimatedTime": 30
  },
  {
    "instructionsUrl": "https://app.testlab4.felk.cvut.cz/cviceni-aktualni/assets/pdf/doporuceny-postup/kdo-odcinil-bilou-horu.pdf",
    "tryItUrl": "https://app.testlab4.felk.cvut.cz/cviceni/kdo-odcinil-bilou-horu?lang=",
    "url": "https://testlab4.felk.cvut.cz/cviceni/kdo-odcinil-bilou-horu",
    "image_url": "https://app.testlab4.felk.cvut.cz/cviceni-aktualni/assets/img/kdo-odcinil-bilou-horu/pomnik-novy.jpg",
    "id": 639,
    "code": "cviceniKdoOdcinilBilouHoru",
    "name": "Kdo odčinil Bílou horu?",
    "description": "Cvičení se zaměřuje na rekonstrukci okolností vzniku pomníku, který byl roku 1946 postaven v jihočeských Malontech jako připomínka osídlení původně německé obce českým obyvatelstvem. Žáci na základě analýzy současné fotografie pomníku formulují hypotézy o jeho účelu, které následně za pomoci dobových textů (politický projev z roku 1945, úryvek z obecní kroniky) zpřesňují a zasazují do širších souvislostí. Cvičení lze spojit s výkladem proměn české společnosti po skončení druhé světové války.",
    "taxonomy": "svg;lupa;cteni;text",
    "topics": "odsun;národní symboly;pomník;trvání a změna;příčiny a důsledky;textová a obrazová analýza",
    "enabled": true,
    "slug": "kdo-odcinil-bilou-horu",
    "authors": "Michal Kurz",
    "exerciseId": 12,
    "language": "",
    "estimatedTime": 45
  },
  {
    "instructionsUrl": "https://app.testlab4.felk.cvut.cz/cviceni-aktualni/assets/pdf/doporuceny-postup/mel-si-kleknout.pdf",
    "tryItUrl": "https://app.testlab4.felk.cvut.cz/cviceni/mel-si-kleknout?lang=cs",
    "url": "https://testlab4.felk.cvut.cz/cviceni/mel-si-kleknout",
    "image_url": "https://app.testlab4.felk.cvut.cz/cviceni-aktualni/assets/img/mel-si-kleknout/kleknuti.jpg",
    "id": 640,
    "code": "cviceniMelSiKleknout",
    "name": "Měl si kleknout?",
    "description": "Cvičení se zaměřuje na ikonické pokleknutí Willyho Brandta před pomníkem povstání ve varšavském ghettu. Žáci využívají různé zdroje, aby diskutovali nad tím, zda si západoněmecký kancléř v roce 1970 měl, či neměl před pomníkem kleknout.",
    "taxonomy": "lupa;svg;text",
    "topics": "bipolární svět;holokaust;paměť;historický význam;diskutujeme",
    "enabled": true,
    "slug": "mel-si-kleknout",
    "authors": "Kamil Činátl",
    "exerciseId": 68,
    "language": "cs",
    "estimatedTime": 35
  },
  {
    "instructionsUrl": "https://app.testlab4.felk.cvut.cz/cviceni-aktualni/assets/pdf/doporuceny-postup/politika-na-namesti.pdf",
    "tryItUrl": "https://app.testlab4.felk.cvut.cz/cviceni/politika-na-namesti?lang=",
    "url": "https://testlab4.felk.cvut.cz/cviceni/politika-na-namesti",
    "image_url": "https://app.testlab4.felk.cvut.cz/cviceni-aktualni/assets/img/politika-na-namesti/namesti.jpg",
    "id": 641,
    "code": "cviceniPolitikaNaNamesti",
    "name": "Politika na náměstí",
    "description": "Cvičení pracuje s historickou fotografií zachycující výzdobu Václavského náměstí u příležitosti narozenin J. V. Stalina v roce 1949. Žáci označují na fotografii důležité prvky a barevně odlišují ty, které se přímo vztahují ke znázorněné události. Za pomoci dobové popisky analyzují, jakým způsobem se politické dění může odrážet ve veřejném prostoru města. Cvičení lze využít k doplnění výkladu o proměně veřejného života v Československu po Únoru 1948 (kult osobnosti, role SSSR) i k obecnější diskuzi o povaze a dynamice historických změn a jejich schopnosti (ne)změnit fyzickou podobu měst.",
    "taxonomy": "lupa;svg;text;kresleni;znacky",
    "topics": "Československo 50. léta;propaganda;každodennost;kult osobnosti;město;historická změna;díváme se kolem sebe",
    "enabled": true,
    "slug": "politika-na-namesti",
    "authors": "Michal Kurz",
    "exerciseId": 63,
    "language": "",
    "estimatedTime": 25
  },
  {
    "instructionsUrl": "https://app.testlab4.felk.cvut.cz/cviceni-aktualni/assets/pdf/doporuceny-postup/proc-demonstrovali.pdf",
    "tryItUrl": "https://app.testlab4.felk.cvut.cz/cviceni/proc-demonstrovali?lang=",
    "url": "https://testlab4.felk.cvut.cz/cviceni/proc-demonstrovali",
    "image_url": "https://app.testlab4.felk.cvut.cz/cviceni-aktualni/assets/img/proc-demonstrovali/demonstrace.jpg",
    "id": 642,
    "code": "cviceniProcDemonstrovali",
    "name": "Proč demonstrovali?",
    "description": "Cvičení pracuje s fotografiemi z prvomájového průvodu německých sociálních demokratů, který se konal krátce před parlamentními volbami v roce 1935 v Českém Krumlově. Žáci prostřednictvím analýzy fotografií s neobvyklými transparenty pátrají po identitě demonstrantů a objevují zapomenutý příběh předválečných německých antifašistů a vnímají situaci v Československu jejich perspektivou.",
    "taxonomy": "lupa;text;svg;kresleni",
    "topics": "národnostní problémy ČSR;nacismus;německá sociální demokracie;dobové perspektivy;otevíráme otázku",
    "enabled": true,
    "slug": "proc-demonstrovali",
    "authors": "Tereza Vávrová, Kamil Činátl",
    "exerciseId": 65,
    "language": "",
    "estimatedTime": 30
  },
  {
    "instructionsUrl": "https://app.testlab4.felk.cvut.cz/cviceni-aktualni/assets/pdf/doporuceny-postup/proc-je-velka-britanie-zemi-caje.pdf",
    "tryItUrl": "https://app.testlab4.felk.cvut.cz/cviceni/proc-je-velka-britanie-zemi-caje?lang=cs",
    "url": "https://testlab4.felk.cvut.cz/cviceni/proc-je-velka-britanie-zemi-caje",
    "image_url": "https://app.testlab4.felk.cvut.cz/cviceni-aktualni/assets/img/proc-je-velka-britanie-zemi-caje/mapa-1.jpg",
    "id": 643,
    "code": "cviceniProcJeVelkaBritanieZemiCaje",
    "name": "Proč je Velká Británie zemí čaje?",
    "description": "Žáci pracují s různorodými prameny (fotografie, grafika, malba, mapa) a snaží se osvětlit, proč se vžilo označení Velké Británie jako země čaje. Postupně objevují příběh čaje jako rostliny, suroviny i komodity a nakonec i jako součásti britské kultury. Žáci třídí prameny a hledají souvislosti, aby porozuměli procesu produkce, transportu a konzumace čaje. Dějiny čaje slouží k reflexi kolonialismu, kapitalismu a procesu globalizace.",
    "taxonomy": "lupa;cteni;text;svg;znacky;pretahovani",
    "topics": "mimoevropský svět;kolonialismus;Velká Británie;historický význam;uspořádáváme zdroje",
    "enabled": true,
    "slug": "proc-je-velka-britanie-zemi-caje",
    "authors": "Václav Sixta",
    "exerciseId": 73,
    "language": "cs",
    "estimatedTime": 45
  },
  {
    "instructionsUrl": "https://app.testlab4.felk.cvut.cz/cviceni-aktualni/assets/pdf/doporuceny-postup/proc-upravili-reportaz.pdf",
    "tryItUrl": "https://app.testlab4.felk.cvut.cz/cviceni/proc-upravili-reportaz?lang=cs",
    "url": "https://testlab4.felk.cvut.cz/cviceni/proc-upravili-reportaz",
    "image_url": "https://app.testlab4.felk.cvut.cz/cviceni-aktualni/assets/img/proc-upravili-reportaz/fucik-obraz.jpg",
    "id": 644,
    "code": "cviceniProcUpraviliReportaz",
    "name": "Proč upravili Reportáž?",
    "description": "Žáci se seznámí s Reportáží, psanou na oprátce. Svědectví Julia Fučíka z nacistického vězení hrálo důležitou roli v kulturní politice Československa v letech 1948–1989. Srovnávají cenzurovanou a původní verzi závěru Reportáže. Snaží se uspořádat informace a odhalit záměry úprav tohoto díla.",
    "taxonomy": "lupa;cteni;text;svg;tabulka",
    "topics": "Československo 1948-1989;kult hrdiny;cenzura;historický význam;uspořádáváme zdroje",
    "enabled": true,
    "slug": "proc-upravili-reportaz",
    "authors": "Kamil Činátl, Čeněk Pýcha",
    "exerciseId": 67,
    "language": "cs",
    "estimatedTime": 45
  },
  {
    "instructionsUrl": "https://app.testlab4.felk.cvut.cz/cviceni-aktualni/assets/pdf/doporuceny-postup/proc-vydali-znamku.pdf",
    "tryItUrl": "https://app.testlab4.felk.cvut.cz/cviceni/proc-vydali-znamku?lang=cs",
    "url": "https://testlab4.felk.cvut.cz/cviceni/proc-vydali-znamku",
    "image_url": "https://app.testlab4.felk.cvut.cz/cviceni-aktualni/assets/img/proc-vydali-znamku/znamka.jpg",
    "id": 645,
    "code": "cviceniProcVydaliZnamku",
    "name": "Proč vydali známku?",
    "description": "Žáci zkoumají známku, která vyšla v Československu k 20. výročí bitvy u Zborova. Pokouší se určit symbolické významy zobrazených vojáků. Uspořádávají informace o známce z dobových dokumentů, aby porozuměli důvodům jejího vzniku.",
    "taxonomy": "lupa;cteni;text;svg;znacky;text-editor;pretahovani",
    "topics": "první světová válka;ČSR v meziválečné době;politika paměti;historický význam;uspořádáváme zdroje",
    "enabled": true,
    "slug": "proc-vydali-znamku",
    "authors": "Petr Sedlák, Radovan Lovčí",
    "exerciseId": 75,
    "language": "cs",
    "estimatedTime": 30
  },
  {
    "instructionsUrl": "https://app.testlab4.felk.cvut.cz/cviceni-aktualni/assets/pdf/doporuceny-postup/proc-vystavovali-obraz-t-g-masaryka.pdf",
    "tryItUrl": "https://app.testlab4.felk.cvut.cz/cviceni/proc-vystavovali-obraz-t-g-masaryka?lang=cs",
    "url": "https://testlab4.felk.cvut.cz/cviceni/proc-vystavovali-obraz-t-g-masaryka",
    "image_url": "https://app.testlab4.felk.cvut.cz/cviceni-aktualni/assets/img/proc-vystavovali-obraz-t-g-masaryka/pic-00.jpg",
    "id": 646,
    "code": "cviceniProcVystavovaliObrazTGMasaryka",
    "name": "Proč vystavovali obraz T.G. Masaryka?",
    "description": "Cvičení rozvíjí dovednost analyzovat obrazy. Žáci detailně popisují portrét prezidenta Masaryka, přičemž zohledňují příběh obrazu. Následně zkoumají zápis z lánské obecní kroniky o vystavování obrazu v roce 1968, aby osvětlili symbolické významy, s nimiž mohla být osoba T. G. M. a funkce prezidenta spojována. Žáci se zamýšlejí nad tím, jak mohla obraz vnímat veřejnost v roce 1968.",
    "taxonomy": "lupa;cteni;text;svg;kresleni",
    "topics": "politický vývoj ČSR;masová kultura;symbolický význam;T.G.M.;trvání a změna;dobové perspektivy;formulujeme hypotézu",
    "enabled": true,
    "slug": "proc-vystavovali-obraz-t-g-masaryka",
    "authors": "Kamil Činátl, Čeněk Pýcha",
    "exerciseId": 27,
    "language": "cs",
    "estimatedTime": 25
  },
  {
    "instructionsUrl": "https://app.testlab4.felk.cvut.cz/cviceni-aktualni/assets/pdf/doporuceny-postup/proc-vytvareli-mapu.pdf",
    "tryItUrl": "https://app.testlab4.felk.cvut.cz/cviceni/proc-vytvareli-mapu?lang=",
    "url": "https://testlab4.felk.cvut.cz/cviceni/proc-vytvareli-mapu",
    "image_url": "https://app.testlab4.felk.cvut.cz/cviceni-aktualni/assets/img/proc-vytvareli-mapu/petiletka-r.jpg",
    "id": 647,
    "code": "cviceniProcVytvareliMapu",
    "name": "Proč vytvářeli mapu?",
    "description": "Cvičení pracuje s výtvarně zpracovanou mapou ČSR Velké stavby druhé pětiletky z roku 1956. Žáci označují a popisují její jednotlivé emblémy a výběrem z připravených pojmů charakterizují stát, který znázorňuje. S pomocí doplňujících údajů odhadují, jaké funkce mohla v kontextu doby svého vzniku plnit. Cvičení lze využít k přiblížení obecných pojmů souvisejících se socioekonomickými proměnami ČSR po Únoru 1948 (pětiletý plán, industrializace, centrálně plánovaná ekonomika).",
    "taxonomy": "lupa;text;svg;kresleni",
    "topics": "pětiletka;modernizace;propaganda;historická změna;analýza mapy",
    "enabled": true,
    "slug": "proc-vytvareli-mapu",
    "authors": "Michal Kurz",
    "exerciseId": 47,
    "language": "",
    "estimatedTime": 35
  },
  {
    "instructionsUrl": "https://app.testlab4.felk.cvut.cz/cviceni-aktualni/assets/pdf/doporuceny-postup/proc-vznikl-skolni-obraz.pdf",
    "tryItUrl": "https://app.testlab4.felk.cvut.cz/cviceni/proc-vznikl-skolni-obraz?lang=cs",
    "url": "https://testlab4.felk.cvut.cz/cviceni/proc-vznikl-skolni-obraz",
    "image_url": "https://app.testlab4.felk.cvut.cz/cviceni-aktualni/assets/img/proc-vznikl-skolni-obraz/pic-00.jpg",
    "id": 648,
    "code": "cviceniProcVzniklSkolniObraz",
    "name": "Proč vznikl školní obraz?",
    "description": "Cvičení se zaměřuje na zobrazení návratu prezidenta Masaryka do republiky v roce 1918. Žáci zkoumají školní obraz a dvě fotografie této události. Srovnávají způsob zobrazení a zaměřují se na symbolické významy spojené s postavou T. G. Masaryka. Kritická analýza obrazu problematizuje vztah mezi skutečností a vyobrazením. Žáci si uvědomují posuny v zobrazení a rozvíjejí svou vizuální gramotnost.",
    "taxonomy": "lupa;text;svg;znacky",
    "topics": "vznik ČSR;škola;symbolický význam;historický význam;vidíme pod povrch pramene",
    "enabled": true,
    "slug": "proc-vznikl-skolni-obraz",
    "authors": "Kamil Činátl",
    "exerciseId": 31,
    "language": "cs",
    "estimatedTime": 30
  },
  {
    "instructionsUrl": "https://app.testlab4.felk.cvut.cz/cviceni-aktualni/assets/pdf/doporuceny-postup/trabanty-za-svobodu.pdf",
    "tryItUrl": "https://app.testlab4.felk.cvut.cz/cviceni/trabanty-za-svobodu?lang=cs",
    "url": "https://testlab4.felk.cvut.cz/cviceni/trabanty-za-svobodu",
    "image_url": "https://app.testlab4.felk.cvut.cz/cviceni-aktualni/assets/img/trabanty-za-svobodu/trabant.jpg",
    "id": 649,
    "code": "cviceniTrabantyZaSvobodu",
    "name": "S trabanty za svobodou",
    "description": "Cvičení využívá sled fotografií ilustrující hromadný útěk občanů Východního Německa přes ambasádu SRN v Praze do Západního Německa v roce 1989. Žáci s pomocí analýzy fotografií a jejich chronologického řazení sestavují příběh, který se na pozadí zobrazených situací mohl odehrávat. Cvičení je možné využít k přiblížení dramatických událostí, které v roce 1989 provázely postupný rozpad komunistických režimů v zemích východního bloku.",
    "taxonomy": "lupa;cteni;text;svg",
    "topics": "pád komunistických režimů;migrace;historický význam;tvoříme",
    "enabled": true,
    "slug": "trabanty-za-svobodu",
    "authors": "Pavla Sýkorová",
    "exerciseId": 61,
    "language": "cs",
    "estimatedTime": 35
  },
  {
    "instructionsUrl": "https://app.testlab4.felk.cvut.cz/cviceni-aktualni/assets/pdf/doporuceny-postup/vanocni-zmena.pdf",
    "tryItUrl": "https://app.testlab4.felk.cvut.cz/cviceni/vanocni-zmena?lang=cs",
    "url": "https://testlab4.felk.cvut.cz/cviceni/vanocni-zmena",
    "image_url": "https://app.testlab4.felk.cvut.cz/cviceni-aktualni/assets/img/vanocni-zmena/pic-02.jpg",
    "id": 650,
    "code": "cviceniVanocniZmena",
    "name": "Vánoční změna?",
    "description": "Cvičení je postaveno na projevu Antonína Zápotockého, ve kterém tehdejší předseda vlády vysvětluje, jak se proměňují Vánoce (z Ježíška se stává Děda Mráz, místo betlémské hvězdy svítí rudé hvězdy, …). Žáci proměny vyznačují do obrázku a kladou si přitom otázky: Proč chtěli komunisté změnit Vánoce? a Proč změna nebyla úspěšná? Cvičení lze využít pro dokreslení propagandy 50. let jako ukázku nekritického přijetí sovětské kultury a prolínání veřejné a privátní sféry.",
    "taxonomy": "lupa;svg;text;audio",
    "topics": "50. léta;propaganda;Vánoce;historická změna;analýza a interpretace rozhlasového projevu",
    "enabled": true,
    "slug": "vanocni-zmena",
    "authors": "Pavla Sýkorová",
    "exerciseId": 40,
    "language": "cs",
    "estimatedTime": 30
  }
]
